…
ci_r_square = 
  adj_r_square_df %>% 
  summarize(
    ci_lower = quantile(adj.r.squared, 0.025), 
    ci_upper = quantile(adj.r.squared, 0.975)) %>% 
  round(digits = 2)

adj_r_square_df
```

    ## # A tibble: 5,000 x 13
    ##    strap_number r.squared adj.r.squared sigma statistic   p.value    df logLik
    ##           <int>     <dbl>         <dbl> <dbl>     <dbl>     <dbl> <dbl>  <dbl>
    ##  1            1     0.898         0.897  3.08     3185. 8.83e-182     1  -928.
    ##  2            2     0.913         0.913  2.93     3833. 5.33e-195     1  -910.
    ##  3            3     0.902         0.901  2.99     3332. 5.64e-185     1  -917.
    ##  4            4     0.904         0.904  3.08     3410. 1.23e-186     1  -928.
    ##  5            5     0.920         0.920  2.82     4188. 2.07e-201     1  -896.
    ##  6            6     0.904         0.903  3.03     3403. 1.79e-186     1  -921.
    ##  7            7     0.917         0.917  2.89     4023. 1.68e-198     1  -905.
    ##  8            8     0.919         0.919  2.84     4125. 2.65e-200     1  -899.
    ##  9            9     0.915         0.915  2.90     3928. 8.83e-197     1  -905.
    ## 10           10     0.906         0.906  2.96     3508. 1.20e-188     1  -913.
    ## # ... with 4,990 more rows, and 5 more variables: AIC <dbl>, BIC <dbl>,
    ## #   deviance <dbl>, df.residual <int>, nobs <int>
…
ci_log = 
  log_df %>% 
  summarize(
    ci_lower = quantile(value, 0.025), 
    ci_upper = quantile(value, 0.975)) %>% 
  round(digits = 2)

log_df
```

    ## # A tibble: 5,000 x 3
    ##       B0    B1 value
    ##    <dbl> <dbl> <dbl>
    ##  1  7.54  1.02  2.04
    ##  2  6.86  1.06  1.99
    ##  3  7.55  1.02  2.04
    ##  4  7.24  1.03  2.01
    ##  5  6.89  1.06  1.99
    ##  6  7.15  1.06  2.02
    ##  7  7.20  1.04  2.02
    ##  8  7.26  1.04  2.02
    ##  9  7.19  1.05  2.03
    ## 10  7.34  1.04  2.03
    ## # ... with 4,990 more rows
…
